{
  "application_name": "DSCIS",
  "date": "2022-05-31",
  "status": "Work In Progress",
  "release_id": "5656",
  "coordinate_name": "rrrr",
  "coordinate_email": "rrrr@eeeee.com",
  "crq_list": [
    {
      "crq_number": "453534553",
      "project_components": [
        {
          "component": "Curam",
          "repo_name": "yy2",
          "branch_name": "yy3",
          "tag": "yy4",
          "build": "yy1"
        }
      ]
    },
    {
      "crq_number": "454545454",
      "project_components": [
        {
          "component": "Congnos",
          "repo_name": "ee2",
          "branch_name": "ee3",
          "tag": "ee4",
          "build": "ee1"
        }
      ]
    }
  ]
}